mc16_13TeV.301933.Pythia8EvtGen_A14NNPDF23LO_Bstar1000.deriv.DAOD_EXOT2.e3915_a875_r10201_p3705
mc16_13TeV.301934.Pythia8EvtGen_A14NNPDF23LO_Bstar1250.deriv.DAOD_EXOT2.e3915_a875_r10201_p3705
mc16_13TeV.301935.Pythia8EvtGen_A14NNPDF23LO_Bstar1500.deriv.DAOD_EXOT2.e3915_a875_r10201_p3705
mc16_13TeV.301936.Pythia8EvtGen_A14NNPDF23LO_Bstar1750.deriv.DAOD_EXOT2.e3915_a875_r10201_p3705
mc16_13TeV.301937.Pythia8EvtGen_A14NNPDF23LO_Bstar2000.deriv.DAOD_EXOT2.e3915_a875_r10201_p3705
mc16_13TeV.301938.Pythia8EvtGen_A14NNPDF23LO_Bstar2500.deriv.DAOD_EXOT2.e3915_a875_r10201_p3705
mc16_13TeV.301939.Pythia8EvtGen_A14NNPDF23LO_Bstar3000.deriv.DAOD_EXOT2.e3915_a875_r10201_p3705
mc16_13TeV.301940.Pythia8EvtGen_A14NNPDF23LO_Bstar4000.deriv.DAOD_EXOT2.e3915_a875_r10201_p3705
mc16_13TeV.301941.Pythia8EvtGen_A14NNPDF23LO_Bstar5000.deriv.DAOD_EXOT2.e3915_a875_r10201_p3705
