mc16_13TeV.310528.Pythia8EvtGen_A14NNPDF23LO_Ggg_02_1250.deriv.DAOD_EXOT2.e6974_a875_r9364_p3705
mc16_13TeV.310529.Pythia8EvtGen_A14NNPDF23LO_Ggg_02_1500.deriv.DAOD_EXOT2.e6974_a875_r9364_p3705
mc16_13TeV.310530.Pythia8EvtGen_A14NNPDF23LO_Ggg_02_1750.deriv.DAOD_EXOT2.e6974_a875_r9364_p3705
mc16_13TeV.310531.Pythia8EvtGen_A14NNPDF23LO_Ggg_02_2000.deriv.DAOD_EXOT2.e6974_a875_r9364_p3705
mc16_13TeV.310532.Pythia8EvtGen_A14NNPDF23LO_Ggg_02_2500.deriv.DAOD_EXOT2.e6974_a875_r9364_p3705
mc16_13TeV.310533.Pythia8EvtGen_A14NNPDF23LO_Ggg_02_3000.deriv.DAOD_EXOT2.e6974_a875_r9364_p3705
mc16_13TeV.310534.Pythia8EvtGen_A14NNPDF23LO_Ggg_02_3500.deriv.DAOD_EXOT2.e6974_a875_r9364_p3705
mc16_13TeV.310535.Pythia8EvtGen_A14NNPDF23LO_Ggg_02_4000.deriv.DAOD_EXOT2.e6974_a875_r9364_p3705
mc16_13TeV.310536.Pythia8EvtGen_A14NNPDF23LO_Ggg_02_4500.deriv.DAOD_EXOT2.e6974_a875_r9364_p3705
mc16_13TeV.310537.Pythia8EvtGen_A14NNPDF23LO_Ggg_02_5000.deriv.DAOD_EXOT2.e6974_a875_r9364_p3705
